C:\Sync\Minecraft\Plugin\Project\New\U-Library\common\src\main\java\shadowuni\plugin\library\api\ULibrary.java
C:\Sync\Minecraft\Plugin\Project\New\U-Library\common\src\main\java\shadowuni\plugin\library\api\bossbar\entity\OEntityBar.java
C:\Sync\Minecraft\Plugin\Project\New\U-Library\common\src\main\java\shadowuni\plugin\library\api\lib\barapi\nms\v1_8Fake.java
C:\Sync\Minecraft\Plugin\Project\New\U-Library\common\src\main\java\shadowuni\plugin\library\api\permission\PermissionManager.java
C:\Sync\Minecraft\Plugin\Project\New\U-Library\common\src\main\java\shadowuni\plugin\library\api\gui\SideBar.java
C:\Sync\Minecraft\Plugin\Project\New\U-Library\common\src\main\java\shadowuni\plugin\library\listener\PlayerListener.java
C:\Sync\Minecraft\Plugin\Project\New\U-Library\common\src\main\java\shadowuni\plugin\library\api\util\ItemUtil.java
C:\Sync\Minecraft\Plugin\Project\New\U-Library\common\src\main\java\shadowuni\plugin\library\api\category\InventoryAction.java
C:\Sync\Minecraft\Plugin\Project\New\U-Library\common\src\main\java\shadowuni\plugin\library\api\gui\GUI.java
C:\Sync\Minecraft\Plugin\Project\New\U-Library\common\src\main\java\shadowuni\plugin\library\api\command\MainCommandBase.java
C:\Sync\Minecraft\Plugin\Project\New\U-Library\common\src\main\java\shadowuni\plugin\library\api\sql\SQLManagerBase.java
C:\Sync\Minecraft\Plugin\Project\New\U-Library\common\src\main\java\shadowuni\plugin\library\api\gui\Icon.java
C:\Sync\Minecraft\Plugin\Project\New\U-Library\common\src\main\java\shadowuni\plugin\library\api\sql\SQLTable.java
C:\Sync\Minecraft\Plugin\Project\New\U-Library\common\src\main\java\shadowuni\plugin\library\api\command\a\MainCommand.java
C:\Sync\Minecraft\Plugin\Project\New\U-Library\common\src\main\java\shadowuni\plugin\library\api\lib\barapi\nms\v1_7.java
C:\Sync\Minecraft\Plugin\Project\New\U-Library\common\src\main\java\shadowuni\plugin\library\api\event\ChannelMessageEvent.java
C:\Sync\Minecraft\Plugin\Project\New\U-Library\common\src\main\java\shadowuni\plugin\library\api\event\gui\QuickBarGUIClickEvent.java
C:\Sync\Minecraft\Plugin\Project\New\U-Library\common\src\main\java\shadowuni\plugin\library\api\permission\UPermissionList.java
C:\Sync\Minecraft\Plugin\Project\New\U-Library\common\src\main\java\shadowuni\plugin\library\api\util\PluginUtil.java
C:\Sync\Minecraft\Plugin\Project\New\U-Library\common\src\main\java\shadowuni\plugin\library\api\util\StringUtil.java
C:\Sync\Minecraft\Plugin\Project\New\U-Library\common\src\main\java\shadowuni\plugin\library\api\category\ClickAction.java
C:\Sync\Minecraft\Plugin\Project\New\U-Library\common\src\main\java\shadowuni\plugin\library\api\command\a\CommandListener.java
C:\Sync\Minecraft\Plugin\Project\New\U-Library\common\src\main\java\shadowuni\plugin\library\api\UILibrary.java
C:\Sync\Minecraft\Plugin\Project\New\U-Library\common\src\main\java\shadowuni\plugin\library\listener\GUIListener.java
C:\Sync\Minecraft\Plugin\Project\New\U-Library\common\src\main\java\shadowuni\plugin\library\api\lib\barapi\nms\v1_5.java
C:\Sync\Minecraft\Plugin\Project\New\U-Library\common\src\main\java\shadowuni\plugin\library\api\lib\barapi\nms\v1_8.java
C:\Sync\Minecraft\Plugin\Project\New\U-Library\common\src\main\java\shadowuni\plugin\library\api\lib\barapi\nms\FakeDragon.java
C:\Sync\Minecraft\Plugin\Project\New\U-Library\common\src\main\java\shadowuni\plugin\library\api\lib\barapi\nms\v1_9P.java
C:\Sync\Minecraft\Plugin\Project\New\U-Library\common\src\main\java\shadowuni\plugin\library\listener\ChannelMessageListener.java
C:\Sync\Minecraft\Plugin\Project\New\U-Library\common\src\main\java\shadowuni\plugin\library\api\scheduler\UBukkitRunnable.java
C:\Sync\Minecraft\Plugin\Project\New\U-Library\common\src\main\java\shadowuni\plugin\library\api\command\a\CommandManager.java
C:\Sync\Minecraft\Plugin\Project\New\U-Library\common\src\main\java\shadowuni\plugin\library\api\util\TextUtil.java
C:\Sync\Minecraft\Plugin\Project\New\U-Library\common\src\main\java\shadowuni\plugin\library\api\redis\RedisManagerBase.java
C:\Sync\Minecraft\Plugin\Project\New\U-Library\common\src\main\java\shadowuni\plugin\library\api\gui\GUIManager.java
C:\Sync\Minecraft\Plugin\Project\New\U-Library\common\src\main\java\shadowuni\plugin\library\api\util\ChannelMessageUtil.java
C:\Sync\Minecraft\Plugin\Project\New\U-Library\common\src\main\java\shadowuni\plugin\library\api\command\a\SubCommandHandler.java
C:\Sync\Minecraft\Plugin\Project\New\U-Library\common\src\main\java\shadowuni\plugin\library\api\scheduler\UScheduler.java
C:\Sync\Minecraft\Plugin\Project\New\U-Library\common\src\main\java\shadowuni\plugin\library\api\command\a\SubCommand.java
C:\Sync\Minecraft\Plugin\Project\New\U-Library\common\src\main\java\shadowuni\plugin\library\api\event\gui\GUICloseEvent.java
C:\Sync\Minecraft\Plugin\Project\New\U-Library\common\src\main\java\shadowuni\plugin\library\api\event\PlayerMoveLocationEvent.java
C:\Sync\Minecraft\Plugin\Project\New\U-Library\common\src\main\java\shadowuni\plugin\library\api\task\PluginMessageTask.java
C:\Sync\Minecraft\Plugin\Project\New\U-Library\common\src\main\java\shadowuni\plugin\library\api\bossbar\entity\LEntityBar.java
C:\Sync\Minecraft\Plugin\Project\New\U-Library\common\src\main\java\shadowuni\plugin\library\api\category\DefaultFontInfo.java
C:\Sync\Minecraft\Plugin\Project\New\U-Library\common\src\main\java\shadowuni\plugin\library\api\lib\barapi\Util.java
C:\Sync\Minecraft\Plugin\Project\New\U-Library\common\src\main\java\shadowuni\plugin\library\api\lib\barapi\BarAPI.java
C:\Sync\Minecraft\Plugin\Project\New\U-Library\common\src\main\java\shadowuni\plugin\library\api\bossbar\BossBar.java
C:\Sync\Minecraft\Plugin\Project\New\U-Library\common\src\main\java\shadowuni\plugin\library\api\category\NMSVersion.java
C:\Sync\Minecraft\Plugin\Project\New\U-Library\common\src\main\java\shadowuni\plugin\library\api\command\a\CommandHandler.java
C:\Sync\Minecraft\Plugin\Project\New\U-Library\common\src\main\java\shadowuni\plugin\library\api\gui\QuickBarGUI.java
C:\Sync\Minecraft\Plugin\Project\New\U-Library\common\src\main\java\shadowuni\plugin\library\api\util\HiddenStringUtil.java
C:\Sync\Minecraft\Plugin\Project\New\U-Library\common\src\main\java\shadowuni\plugin\library\api\UPlugin.java
C:\Sync\Minecraft\Plugin\Project\New\U-Library\common\src\main\java\shadowuni\plugin\library\api\command\SubCommandBase.java
C:\Sync\Minecraft\Plugin\Project\New\U-Library\common\src\main\java\shadowuni\plugin\library\api\event\UEvent.java
C:\Sync\Minecraft\Plugin\Project\New\U-Library\common\src\main\java\shadowuni\plugin\library\api\ILibraryPlugin.java
C:\Sync\Minecraft\Plugin\Project\New\U-Library\common\src\main\java\shadowuni\plugin\library\api\sql\SQLConfig.java
C:\Sync\Minecraft\Plugin\Project\New\U-Library\common\src\main\java\shadowuni\plugin\library\api\util\NumberUtil.java
C:\Sync\Minecraft\Plugin\Project\New\U-Library\common\src\main\java\shadowuni\plugin\library\api\event\gui\GUIClickEvent.java
C:\Sync\Minecraft\Plugin\Project\New\U-Library\common\src\main\java\shadowuni\plugin\library\api\event\UCancellableEvent.java
C:\Sync\Minecraft\Plugin\Project\New\U-Library\common\src\main\java\shadowuni\plugin\library\api\sql\SQLManager.java
C:\Sync\Minecraft\Plugin\Project\New\U-Library\common\src\main\java\shadowuni\plugin\library\api\lib\VaultHandler.java
C:\Sync\Minecraft\Plugin\Project\New\U-Library\common\src\main\java\shadowuni\plugin\library\api\sql\SQLColumn.java
C:\Sync\Minecraft\Plugin\Project\New\U-Library\common\src\main\java\shadowuni\plugin\library\api\category\Particle.java
C:\Sync\Minecraft\Plugin\Project\New\U-Library\common\src\main\java\shadowuni\plugin\library\api\lib\barapi\nms\v1_6.java
C:\Sync\Minecraft\Plugin\Project\New\U-Library\common\src\main\java\shadowuni\plugin\library\api\command\SimpleCommandBase.java
C:\Sync\Minecraft\Plugin\Project\New\U-Library\common\src\main\java\shadowuni\plugin\library\api\event\gui\GUIOpenEvent.java
C:\Sync\Minecraft\Plugin\Project\New\U-Library\common\src\main\java\shadowuni\plugin\library\api\UnRegisterableListener.java
C:\Sync\Minecraft\Plugin\Project\New\U-Library\common\src\main\java\shadowuni\plugin\library\api\bossbar\entity\EntityBar.java
C:\Sync\Minecraft\Plugin\Project\New\U-Library\common\src\main\java\shadowuni\plugin\library\api\command\a\UnRegisterableCommand.java
C:\Sync\Minecraft\Plugin\Project\New\U-Library\common\src\main\java\shadowuni\plugin\library\api\command\a\Command.java
C:\Sync\Minecraft\Plugin\Project\New\U-Library\common\src\main\java\shadowuni\plugin\library\api\event\LastPlayerQuitEvent.java
C:\Sync\Minecraft\Plugin\Project\New\U-Library\common\src\main\java\shadowuni\plugin\library\api\util\ReflectionUtil.java
C:\Sync\Minecraft\Plugin\Project\New\U-Library\common\src\main\java\shadowuni\plugin\library\api\event\FirstPlayerJoinEvent.java
