shadowuni\plugin\library\api\hologram\Hologram.class
shadowuni\plugin\library\LibraryPlugin.class
shadowuni\plugin\library\api\util\TitleUtil.class
shadowuni\plugin\library\api\hologram\Sort.class
shadowuni\plugin\library\api\Library.class
shadowuni\plugin\library\api\ILibrary.class
