C:\Sync\Minecraft\Plugin\Project\New\U-Library\lastest\src\main\java\shadowuni\plugin\library\LibraryPlugin.java
C:\Sync\Minecraft\Plugin\Project\New\U-Library\lastest\src\main\java\shadowuni\plugin\library\api\Library.java
C:\Sync\Minecraft\Plugin\Project\New\U-Library\lastest\src\main\java\shadowuni\plugin\library\api\hologram\Hologram.java
C:\Sync\Minecraft\Plugin\Project\New\U-Library\lastest\src\main\java\shadowuni\plugin\library\api\ILibrary.java
C:\Sync\Minecraft\Plugin\Project\New\U-Library\lastest\src\main\java\shadowuni\plugin\library\api\hologram\Sort.java
C:\Sync\Minecraft\Plugin\Project\New\U-Library\lastest\src\main\java\shadowuni\plugin\library\api\util\TitleUtil.java
